fifo_UVM/dump.vcd
$date
	Thu Jun  1 22:24:12 2023
$end

$version
	Synopsys VCS version S-2021.09
$end

$timescale
	1ns
$end

$comment Csum: 1 4da26a2a62ae6d13 $end


$scope module uvm_pkg $end
$var reg 32 ! UVM_UNBOUNDED_CONNECTIONS [31:0] $end
$var time 64 " setting_offset $end
$var reg 32 # setting_verbosity [31:0] $end
$var reg 1 $ is_verdi_set_verbosity_called $end
$var reg 32 % m_uvm_core_state [31:0] $end
$var reg 32 & uvm_global_random_seed [31:0] $end
$upscope $end


$scope module $unit $end
$upscope $end


$scope module top_hdl $end
$var reg 1 ' clk $end

$scope begin unnamed$$_vcs_2 $end
$upscope $end


$scope begin unnamed$$_vcs_0 $end
$upscope $end


$scope begin unnamed$$_vcs_1 $end
$upscope $end


$scope module intf $end
$var wire 1 ( clk $end
$var reg 1 ) rst $end
$var reg 1 * wr_cs $end
$var reg 1 + rd_cs $end
$var reg 8 , data_in [7:0] $end
$var reg 1 - rd_en $end
$var reg 1 . wr_en $end
$var reg 8 / data_out [7:0] $end
$var reg 1 0 empty $end
$var reg 1 1 full $end
$upscope $end


$scope module dut $end
$var wire 1 2 clk $end
$var wire 1 3 rst $end
$var wire 1 4 wr_cs $end
$var wire 1 5 rd_cs $end
$var wire 1 6 rd_en $end
$var wire 1 7 wr_en $end
$var wire 8 8 data_in [7:0] $end
$var wire 1 9 full $end
$var wire 1 : empty $end
$var reg 8 ; data_out [7:0] $end
$var reg 8 < wr_pointer [7:0] $end
$var reg 8 = rd_pointer [7:0] $end
$var reg 9 > status_cnt [8:0] $end
$var wire 8 ? data_ram [7:0] $end

$scope begin WRITE_POINTER $end
$upscope $end


$scope begin READ_POINTER $end
$upscope $end


$scope begin READ_DATA $end
$upscope $end


$scope begin STATUS_COUNTER $end
$upscope $end


$scope module DP_RAM $end
$var wire 8 @ address_0 [7:0] $end
$var wire 1 4 cs_0 $end
$var wire 1 7 we_0 $end
$var wire 1 A oe_0 $end
$var wire 8 B address_1 [7:0] $end
$var wire 1 5 cs_1 $end
$var wire 1 C we_1 $end
$var wire 1 6 oe_1 $end
$var wire 8 8 data_0 [7:0] $end
$var wire 8 ? data_1 [7:0] $end
$var reg 8 D data_0_out [7:0] $end
$var reg 8 E data_1_out [7:0] $end

$scope begin MEM_WRITE $end
$upscope $end


$scope begin MEM_READ_0 $end
$upscope $end


$scope begin MEM_READ_1 $end
$upscope $end

$upscope $end

$upscope $end

$upscope $end


$scope module top_hvl $end

$scope begin unnamed$$_vcs_0 $end
$upscope $end

$upscope $end

$enddefinitions $end

#0
$dumpvars
0$
bxxxxxxxxxxxxxxxxxxxxxxxxxxxxxxxxxxxxxxxxxxxxxxxxxxxxxxxxxxxxxxxx "
b11111111111111111111111111111111 !
b00000000000000000000000000000101 %
b00000000000000000000000000000000 #
b01000010000001111100110001000111 &
0'
b00000000 /
b00000000 ,
0A
0C
b00000000 @
b00000000 B
b00000000 D
b00000000 E
b00000000 ;
bzzzzzzzz ?
b00000000 =
b000000000 >
b00000000 <
0(
02
09
1:
b00000000 8
13
04
05
06
07
10
01
0+
0-
1)
0*
0.
$end
#5
1'
1(
12
#10
0'
0(
02
0)
03
#15
1'
1(
12
#20
0'
0(
02
1*
14
1+
15
#25
1'
1(
12
#30
0'
0(
02
1-
16
b00000000 ?
bxxxxxxxx E
bxxxxxxxx ?
#35
1'
1(
12
b00000001 =
b00000001 B
bxxxxxxxx ;
bxxxxxxxx /
#40
0'
0(
02
0-
06
bzzzzzzzz ?
b00000000 E
#45
1'
1(
12
#50
0'
0(
02
b10011011 ,
1.
17
b10011011 8
#55
1'
1(
12
b00000001 <
b00000001 @
b000000001 >
0:
00
#60
0'
0(
02
0.
07
#65
1'
1(
12
#70
0'
0(
02
1-
16
b00000000 ?
b10011011 E
b10011011 ?
#75
1'
1(
12
b00000010 =
b00000010 B
b10011011 ;
b10011011 /
b000000000 >
1:
10
bxxxxxxxx E
bxxxxxxxx ?
#80
0'
0(
02
0-
06
bzzzzzzzz ?
b00000000 E
#85
1'
1(
12
#90
0'
0(
02
b00101101 ,
1.
17
b00101101 8
#95
1'
1(
12
b00000010 <
b00000010 @
b000000001 >
0:
00
#100
0'
0(
02
0.
07
#105
1'
1(
12
#110
0'
0(
02
1-
16
b00000000 ?
b00101101 E
b00101101 ?
#115
1'
1(
12
b00000011 =
b00000011 B
b00101101 ;
b00101101 /
b000000000 >
1:
10
bxxxxxxxx E
bxxxxxxxx ?
#120
0'
0(
02
0-
06
bzzzzzzzz ?
b00000000 E
#125
1'
1(
12
#130
0'
0(
02
1-
16
b00000000 ?
bxxxxxxxx E
bxxxxxxxx ?
#135
1'
1(
12
b00000100 =
b00000100 B
bxxxxxxxx ;
bxxxxxxxx /
#140
0'
0(
02
0-
06
bzzzzzzzz ?
b00000000 E
#145
1'
1(
12
#150
0'
0(
02
1-
16
b00000000 ?
bxxxxxxxx E
bxxxxxxxx ?
#155
1'
1(
12
b00000101 =
b00000101 B
#160
0'
0(
02
0-
06
bzzzzzzzz ?
b00000000 E
#165
1'
1(
12
#170
0'
0(
02
b10110111 ,
1.
17
b10110111 8
#175
1'
1(
12
b00000011 <
b00000011 @
b000000001 >
0:
00
#180
0'
0(
02
0.
07
#185
1'
1(
12
#190
0'
0(
02
1-
16
b00000000 ?
bxxxxxxxx E
bxxxxxxxx ?
#195
1'
1(
12
b00000110 =
b00000110 B
b000000000 >
1:
10
#200
0'
0(
02
0-
06
bzzzzzzzz ?
b00000000 E
#205
1'
1(
12
#210
0'
0(
02
b00001111 ,
1.
17
b00001111 8
#215
1'
1(
12
b00000100 <
b00000100 @
b000000001 >
0:
00
#220
0'
0(
02
0.
07
#225
1'
1(
12
#230
0'
0(
02
b11001011 ,
1.
17
b11001011 8
#235
1'
1(
12
b00000101 <
b00000101 @
b000000010 >
#240
0'
0(
02
0.
07
#245
1'
1(
12
#250
0'
0(
02
1-
16
b00000000 ?
bxxxxxxxx E
bxxxxxxxx ?
#255
1'
1(
12
b00000111 =
b00000111 B
b000000001 >
#260
0'
0(
02
0-
06
bzzzzzzzz ?
b00000000 E
#265
1'
1(
12
#270
0'
0(
02
1-
16
b00000000 ?
bxxxxxxxx E
bxxxxxxxx ?
#275
1'
1(
12
b00001000 =
b00001000 B
b000000000 >
1:
10
#280
0'
0(
02
0-
06
bzzzzzzzz ?
b00000000 E
#285
1'
1(
12
#290
0'
0(
02
1-
16
b00000000 ?
bxxxxxxxx E
bxxxxxxxx ?
#295
1'
1(
12
b00001001 =
b00001001 B
#300
0'
0(
02
0-
06
bzzzzzzzz ?
b00000000 E
#305
1'
1(
12
#310
0'
0(
02
b01110000 ,
1.
17
b01110000 8
#315
1'
1(
12
b00000110 <
b00000110 @
b000000001 >
0:
00
#320
0'
0(
02
0.
07
#325
1'
1(
12
#330
0'
0(
02
b00001011 ,
1.
17
b00001011 8
#335
1'
1(
12
b00000111 <
b00000111 @
b000000010 >
#340
0'
0(
02
0.
07
#345
1'
1(
12
#350
0'
0(
02
1-
16
b00000000 ?
bxxxxxxxx E
bxxxxxxxx ?
#355
1'
1(
12
b00001010 =
b00001010 B
b000000001 >
#360
0'
0(
02
0-
06
bzzzzzzzz ?
b00000000 E
#365
1'
1(
12
#370
0'
0(
02
1-
16
b00000000 ?
bxxxxxxxx E
bxxxxxxxx ?
#375
1'
1(
12
b00001011 =
b00001011 B
b000000000 >
1:
10
#380
0'
0(
02
0-
06
bzzzzzzzz ?
b00000000 E
#385
1'
1(
12
#390
0'
0(
02
b10100101 ,
1.
17
b10100101 8
#395
1'
1(
12
b00001000 <
b00001000 @
b000000001 >
0:
00
#400
0'
0(
02
0.
07
#405
1'
1(
12
#410
0'
0(
02
b01101001 ,
1.
17
b01101001 8
#415
1'
1(
12
b00001001 <
b00001001 @
b000000010 >
#420
0'
0(
02
0.
07
#425
1'
1(
12
#430
0'
0(
02
b01100100 ,
1.
17
b01100100 8
#435
1'
1(
12
b00001010 <
b00001010 @
b000000011 >
#440
0'
0(
02
0.
07
#445
1'
1(
12
#450
0'
0(
02
1-
16
b00000000 ?
bxxxxxxxx E
bxxxxxxxx ?
#455
1'
1(
12
b00001100 =
b00001100 B
b000000010 >
#460
0'
0(
02
0-
06
bzzzzzzzz ?
b00000000 E
#465
1'
1(
12
#470
0'
0(
02
b11010001 ,
1.
17
b11010001 8
#475
1'
1(
12
b00001011 <
b00001011 @
b000000011 >
#480
0'
0(
02
0.
07
#485
1'
1(
12
#490
0'
0(
02
b10101001 ,
1.
17
b10101001 8
#495
1'
1(
12
b00001100 <
b00001100 @
b000000100 >
#500
0'
0(
02
0.
07
#505
1'
1(
12
#510
0'
0(
02
1-
16
b00000000 ?
b10101001 E
b10101001 ?
#515
1'
1(
12
b00001101 =
b00001101 B
b10101001 ;
b10101001 /
b000000011 >
bxxxxxxxx E
bxxxxxxxx ?
#520
0'
0(
02
0-
06
bzzzzzzzz ?
b00000000 E
#525
1'
1(
12
#530
0'
0(
02
b00000001 ,
1.
17
b00000001 8
#535
1'
1(
12
b00001101 <
b00001101 @
b000000100 >
#540
0'
0(
02
0.
07
#545
1'
1(
12
#550
0'
0(
02
1-
16
b00000000 ?
b00000001 E
b00000001 ?
#555
1'
1(
12
b00001110 =
b00001110 B
b00000001 ;
b00000001 /
b000000011 >
bxxxxxxxx E
bxxxxxxxx ?
#560
0'
0(
02
0-
06
bzzzzzzzz ?
b00000000 E
#565
1'
1(
12
#570
0'
0(
02
1-
16
b00000000 ?
bxxxxxxxx E
bxxxxxxxx ?
#575
1'
1(
12
b00001111 =
b00001111 B
bxxxxxxxx ;
bxxxxxxxx /
b000000010 >
#580
0'
0(
02
0-
06
bzzzzzzzz ?
b00000000 E
#585
1'
1(
12
#590
0'
0(
02
1-
16
b00000000 ?
bxxxxxxxx E
bxxxxxxxx ?
#595
1'
1(
12
b00010000 =
b00010000 B
b000000001 >
#600
0'
0(
02
0-
06
bzzzzzzzz ?
b00000000 E
#605
1'
1(
12
#610
0'
0(
02
b00110001 ,
1.
17
b00110001 8
#615
1'
1(
12
b00001110 <
b00001110 @
b000000010 >
#620
0'
0(
02
0.
07
#625
1'
1(
12
#630
0'
0(
02
b00101001 ,
1.
17
b00101001 8
#635
1'
1(
12
b00001111 <
b00001111 @
b000000011 >
#640
0'
0(
02
0.
07
#645
1'
1(
12
#650
0'
0(
02
b11011000 ,
1.
17
b11011000 8
#655
1'
1(
12
b00010000 <
b00010000 @
b000000100 >
#660
0'
0(
02
0.
07
#665
1'
1(
12
#670
0'
0(
02
1-
16
b00000000 ?
b11011000 E
b11011000 ?
#675
1'
1(
12
b00010001 =
b00010001 B
b11011000 ;
b11011000 /
b000000011 >
bxxxxxxxx E
bxxxxxxxx ?
#680
0'
0(
02
0-
06
bzzzzzzzz ?
b00000000 E
#685
1'
1(
12
#690
0'
0(
02
1-
16
b00000000 ?
bxxxxxxxx E
bxxxxxxxx ?
#695
1'
1(
12
b00010010 =
b00010010 B
bxxxxxxxx ;
bxxxxxxxx /
b000000010 >
#700
0'
0(
02
0-
06
bzzzzzzzz ?
b00000000 E
#705
1'
1(
12
#710
0'
0(
02
1-
16
b00000000 ?
bxxxxxxxx E
bxxxxxxxx ?
#715
1'
1(
12
b00010011 =
b00010011 B
b000000001 >
#720
0'
0(
02
0-
06
bzzzzzzzz ?
b00000000 E
#725
1'
1(
12
#730
0'
0(
02
b00001110 ,
1.
17
b00001110 8
#735
1'
1(
12
b00010001 <
b00010001 @
b000000010 >
#740
0'
0(
02
0.
07
#745
1'
1(
12
#750
0'
0(
02
b00111001 ,
1.
17
b00111001 8
#755
1'
1(
12
b00010010 <
b00010010 @
b000000011 >
#760
0'
0(
02
0.
07
#765
1'
1(
12
#770
0'
0(
02
b10110111 ,
1.
17
b10110111 8
#775
1'
1(
12
b00010011 <
b00010011 @
b000000100 >
#780
0'
0(
02
0.
07
#785
1'
1(
12
#790
0'
0(
02
1-
16
b00000000 ?
b10110111 E
b10110111 ?
#795
1'
1(
12
b00010100 =
b00010100 B
b10110111 ;
b10110111 /
b000000011 >
bxxxxxxxx E
bxxxxxxxx ?
#800
0'
0(
02
0-
06
bzzzzzzzz ?
b00000000 E
#805
1'
1(
12
#810
0'
0(
02
b10010000 ,
1.
17
b10010000 8
#815
1'
1(
12
b00010100 <
b00010100 @
b000000100 >
#820
0'
0(
02
0.
07
#825
1'
1(
12
#830
0'
0(
02
1-
16
b00000000 ?
b10010000 E
b10010000 ?
#835
1'
1(
12
b00010101 =
b00010101 B
b10010000 ;
b10010000 /
b000000011 >
bxxxxxxxx E
bxxxxxxxx ?
#840
0'
0(
02
0-
06
bzzzzzzzz ?
b00000000 E
#845
1'
1(
12
#850
0'
0(
02
1-
16
b00000000 ?
bxxxxxxxx E
bxxxxxxxx ?
#855
1'
1(
12
b00010110 =
b00010110 B
bxxxxxxxx ;
bxxxxxxxx /
b000000010 >
#860
0'
0(
02
0-
06
bzzzzzzzz ?
b00000000 E
#865
1'
1(
12
#870
0'
0(
02
b11111001 ,
1.
17
b11111001 8
#875
1'
1(
12
b00010101 <
b00010101 @
b000000011 >
#880
0'
0(
02
0.
07
#885
1'
1(
12
#890
0'
0(
02
1-
16
b00000000 ?
bxxxxxxxx E
bxxxxxxxx ?
#895
1'
1(
12
b00010111 =
b00010111 B
b000000010 >
#900
0'
0(
02
0-
06
bzzzzzzzz ?
b00000000 E
#905
1'
1(
12
#910
0'
0(
02
b01001001 ,
1.
17
b01001001 8
#915
1'
1(
12
b00010110 <
b00010110 @
b000000011 >
#920
0'
0(
02
0.
07
#925
1'
1(
12
#930
0'
0(
02
b11011101 ,
1.
17
b11011101 8
#935
1'
1(
12
b00010111 <
b00010111 @
b000000100 >
#940
0'
0(
02
0.
07
#945
1'
1(
12
#950
0'
0(
02
1-
16
b00000000 ?
b11011101 E
b11011101 ?
#955
1'
1(
12
b00011000 =
b00011000 B
b11011101 ;
b11011101 /
b000000011 >
bxxxxxxxx E
bxxxxxxxx ?
#960
0'
0(
02
0-
06
bzzzzzzzz ?
b00000000 E
#965
1'
1(
12
#970
0'
0(
02
1-
16
b00000000 ?
bxxxxxxxx E
bxxxxxxxx ?
#975
1'
1(
12
b00011001 =
b00011001 B
bxxxxxxxx ;
bxxxxxxxx /
b000000010 >
#980
0'
0(
02
0-
06
bzzzzzzzz ?
b00000000 E
b00000000000000000000000000000110 %
b00000000000000000000000000000111 %
